n5270380451 n5270380439 n5270380440 n3700802582 n1757220103 n246285220 n246285221 n473370012 n4398856873 n4109587558 n4810585640 n1843993868 n473370011 n5281042258 n4109587566 n4109567674 n4109567671 n3997748453 n3909295519 n217815642 n3997960182 n29583130 n217753140 n217753144 n217753146 n217753150 n217753082 n217815524 n4006090362 n4006090361 n4006090360 n217815518 n4006090359 n4006090358 n217815515 n217816042 n217815983 n217816032 n217816028 n217816014 n4504637804 n215083970 n5058913203 n5058913202 n5058913205 n217815865 n4006214703 n217815882 n4006214702 n4515389626 n217816067 n4592317939 n217815878 n217815875 n214025303 n611541675 n213590638 n213590625 n213590620 n3922287425 n213590616 n3921166506 n611533072 n3922293900 n4592286009 n213590609 n32584106 n4592235543 n213573520 n213573501 n4622518783 n4590956567 n29237095 n2485523831 n3921169735 n213573435 n213573516 n3922242153 n3922323193 n3937303033 n3922771317 n31699862 n3922342489 n213573346 n3922342485 n213573202 n32584111 n213461440 n213461436 n213461434 n213461429 n213461421 n3922640502 n213461415 n3945261257 n213461400 n921044393 n3198134459 n4513810905 n4513810906 n213432617 n213422504 n213377015 n213369743 n213369858 n213432606 n32124372 n4486716991 n213369674 n3492939512 n3492939513 n213369580 n4171720874 n615094706 n4223742819 n615094707 n213329604 n4223742820 n615094712 n213329598 n3492972221 n3397201794 n3982675569 n4223750521 n3982675567 n1510041302 n213369625 n3982675565 n213369629 n213369633 n1510041312 n3833359657 n5844447030 n213369638 n3854607532 n213369641 n3559256677 n32124659 n32124721 n3912479023 n97876279 n3559986569 n3736487906 n402284937 n3896722820 n3896722827 n3896722826 n3896722825 n3896722821 n3896722822 n97876286 n3792439164 n3565014571 n5052214622 n224668161 n224668167 n97876448 n224688986 n3565062202 n1647511645 n1647511608 n224668158 n2883403287 n1647511586 n3666581424 n1237705334 n1237705321 n1237705330 n1237705325 n415140285 n415140281 n415140282 n415140283 n415140284 n665705372 n5910426095 n5910426094 n5162931598 n298296450 n298296449 n1242690436 n1242690444 n5202904499 n5202904498 n248512037 n3716531975 n1242690446 n248512034 n3716531951 n321800133 n2187158786 n316169589 n2187158792 n316169591 n2187158755 n321876525 n2187158748 n316169594 n666819710 n2187158764 n615028262 n2187158758 n248511832 n248511831 n2187158791 n2187158746 n2187158760 n2187158765 
? Chemin_de_la_Cote-de-Liesse Chemin_Lucerne Avenue_Kindersley ? Rue_Pare Avenue_Victoria Rue_Sainte-Catherine_Ouest Chemin_Glen Rue_de_Courcelle Rue_Acorn Chemin_de_la_Cote-Saint-Paul ? Piste_multifonctionnelle ? Rue_Saint-Patrick Rue_Briand Rue_de_Maricourt ? 
10546 m
n2187158765 n2187158760 n2187158767 n248511829 n2187151570 n2187151554 n248511828 n2187149879 n2187149882 n2187149878 n2187149880 n2187149871 n2187149902 n2187149900 n2187149899 n2187149894 n2187149886 n2187149898 n2187149888 n321874539 n321800131 n248511820 n4939253342 n481363048 n5310220842 n481363045 n2694711330 n2694711333 n2694711329 n2694711328 n5351604835 n2694711327 n2694711326 n2694711325 n224644965 n224644964 n1647922992 n224644954 n4127216729 n224644961 n224688982 n210271280 n97876387 n97876393 n97876405 n3562591893 n3562591897 n224668229 n97876286 n3896722822 n3896722823 n3896722828 n3896722829 n3896722830 n3896722824 n402284937 n3736487906 n3559986569 n97876279 n3912479023 n32124721 n32124659 n3559256677 n213369641 n3854607532 n213369638 n5844447030 n3833359657 n1510041312 n213369633 n213369629 n3982675565 n213369625 n1510041302 n3982675567 n4223750521 n3982675569 n3397201709 n615094714 n615094713 n4171720875 n213369852 n3494557338 n32124373 n3514418198 n213369748 n3198131622 n213377016 n3198131624 n213422509 n213422627 n213461405 n213461406 n4033248568 n921044392 n921844594 n213461409 n213461415 n3922640502 n213461421 n213461429 n213461434 n213461436 n213461440 n32584111 n213573202 n3922342485 n213573346 n3922342489 n31699862 n3922771317 n3937303033 n3922323193 n3922242153 n213573516 n213573435 n3921169735 n2485523831 n29237095 n4590956567 n4622518783 n213573501 n213573520 n4592235543 n32584106 n213590609 n4592286009 n3922293900 n611533072 n3921166506 n213590616 n3922287425 n213590620 n213590626 n213590632 n932410128 n214025302 n5058913212 n3203809545 n5058913206 n5058913205 n5058913202 n5058913203 n215083970 n4504637804 n217816014 n217816028 n217816032 n217815983 n217816042 n217815515 n4006090358 n4006090359 n217815518 n4006090360 n4006090361 n4006090362 n217815524 n217753082 n217753150 n31244124 n31244125 n3997748373 n31244126 n31244127 n508483198 n4105420006 n4105420005 n4105420004 n4127982603 n4127982604 n4105420002 n4105420001 n4107657748 n4117462999 n4105419999 n4105419998 n4105419997 n4105420011 n4105419996 n4105419995 n4105419994 n508483188 n217753133 n217741378 n217741321 n217791143 n4303272368 n217791139 n217791148 n217791154 n217791159 n3383475625 n3594104206 n217791165 n3594104207 n217791167 n217791168 n217790815 n217790890 n217791039 n217790975 n217790979 n3905938961 n3905938965 n4303272367 n3905938966 n217791001 n5056182007 n5056182014 n3904523992 n4107829127 n246285232 n6050139706 n246285217 n246285216 n246285226 n246285218 n5270380440 n5270380439 n5270380451 
? Rue_de_Maricourt ? Rue_de_Villiers Rue_Laurendeau Rue_Saint-Remi Tunnel_Saint-Remi Rue_Saint-Remi Rue_Dagenais Rue_de_Courcelle Chemin_Glen Rue_Sainte-Catherine_Ouest Avenue_Grosvenor Chemin_Queen_Mary Avenue_Victoria ? Avenue_Kindersley Chemin_Lucerne Avenue_Lazard Chemin_Saint-Clare Avenue_Morrison ? Avenue_Mitchell Chemin_Hanover Avenue_Devon Chemin_Normandy Avenue_Glengarry Chemin_Athlone ? Rue_Stinson ? Chemin_de_la_Cote-de-Liesse ? 
11130 m
n4095673655 n4095673656 n4095673657 n5171649018 n4095673658 n4095673659 n4095673660 n4095673661 n5171648952 n4095673662 n5271969281 n5271969282 n4095673663 n5171648945 n606288051 n5271969280 n2585563235 n5171648939 n2585563237 n2585563239 n2585563240 n2585563242 n2585563244 n2585563246 n4759689434 n4759689433 n2585563248 n2585563250 n4759689436 n2585563254 n2585563256 n2585563257 n2585563259 n2585563261 n5171648937 n2585563266 n2585563268 n2585563270 n2585563272 n2585563274 n2585563275 n2585563276 n2585563277 n2585563278 n5171648782 n2585563280 n2585563281 n2585563282 n2585563283 n5910859221 n5171648794 n5171648970 n2585563284 n2585563285 n2585563286 n5171648791 n5910859211 n5910859212 n2585563342 n5910859210 n5910859194 n2585563360 n2585563358 n2585563356 n2585563354 n2585563352 n2585563350 n2585563348 n5171648967 n2585563346 n2585563344 n1176239933 n269204649 n4729960654 n5910858119 n4729960655 n5910858117 n4729960656 n5910858116 n4729960657 n5910858118 n4729960658 n4729960659 n5910858115 n4729960650 n5910858121 n5910858122 n5910858123 n5910858120 n4177452391 n5910859226 n269202351 n1176240069 n1176240318 n5910859227 n1176239745 n1176239850 n1176239996 n1176239701 n1176240247 n5910858127 n1176239686 n269204844 n269202460 n5910858128 n5910858129 n5910858130 n5910858131 n5910858133 n5910858132 n1176240027 n269201537 n269202461 n269202462 n1176239832 n1176240218 n269202463 n269202464 n269200952 n269200953 n1176239851 n269200954 n269200904 n5910858178 n269200905 n5910858179 n269200906 n5910858177 n5910858180 n269200908 n5910858160 n5910858161 n5910858162 n5910858176 n5910858175 n5910858174 n5910858173 n5910858172 n5910858171 n5910858181 n5910858170 n5910858169 n5910858168 n5910859188 n5910859189 n5910859187 n5910859193 n5910859190 n5910859186 n5910859191 n5910859185 n5910858165 n5910858164 n5910858163 n4332043660 n4332043661 n245378405 n245378403 n5171649019 n245378401 n606287477 n245378400 n1657380071 n5755000171 n5755000170 n5755000169 n5755000168 n1657380072 n2585563177 n1657380073 n2585563167 n2585563103 n1657380074 n606287490 n606287494 n5171648982 n606287500 n606287502 n606287504 n606287505 n5271969236 n606288058 n5271969229 n606288082 n606288165 n606288173 n1656948335 n606288176 n4332013050 n606288178 n606288185 n606288180 n245471069 n245471070 n245471071 n606288198 n245471072 n245471073 n606288202 n110744809 n110744810 n245476516 n245476557 n4072254000 n110744815 n245485107 n4072253881 n4072253882 n4072253883 n4072253884 n4072253885 n4072253886 n98422963 n98422966 n98422967 n98422968 n98422969 n98422970 n98422972 n98422974 n3635475936 n98422975 n227825525 n98422976 n98422978 n562876525 n98422979 n5473745538 n98422981 n562876537 n98422982 n5473745542 n98422983 n98422984 n98422985 n2130855931 n2133239427 n98422990 n3635475940 n98422992 n98422994 n98422995 n98422996 n98422997 n1452918640 n98422998 n98422999 n1452918642 n98423000 n98423001 n2133239456 n98423003 n4414997865 n98423004 n98423006 n98423007 n5239457462 n1757220086 n194615636 n194615640 n194615649 n194615653 n194615659 n194615667 n1757220079 n1757220100 n1757220083 n1757220080 n217741356 n217741342 n3904523991 n444666511 n217741354 n217741352 n444666514 n217741360 n217741351 n4107657734 n3901114726 n215220947 n5249261784 n5249261787 n215220943 n3889315500 n217681418 n217681350 n5249357975 n5249357983 n3659066807 n3659066808 n3659066809 n3659066810 n3659066813 n246086855 n215220886 n215220882 n215220880 n3659066814 n215220879 n1626474444 n215247895 n437724489 n437749012 n3659283337 n442984099 n442984094 n1876930174 n286127015 n437744715 n437761020 n437745124 n437746505 n4488305194 n437749044 n215207683 n441201692 n3243344660 n3243349261 n437749056 n437749058 n437749059 n437749060 n4488208751 n437749062 n3243344658 n437749064 n4488476220 n437749065 n437867337 n437750135 n3688789495 n438298992 n438319954 n437749080 n437749082 n437749084 n437867650 n4486697719 n4580996931 n437749090 n215207795 n215208343 n215208348 n215208380 n215208387 n437745580 n437745585 n5274490123 n437745590 n437745594 n437745598 n2122153819 n437745602 n437745607 n437745612 n437745616 n437745617 n437745618 n437745623 n437745627 n437745630 n437745641 n4070256237 n2122154684 n437745644 n1756028738 n437745648 n4051954662 n437745655 n2122154679 n2122154682 n225061883 n1756028733 n1756028753 n1756028754 n4051954649 n1756028740 n246658033 n892653782 n1771623462 n246658034 n246658035 n4051954613 n246658036 n4051954617 n303687996 n246658038 n246658039 n246658040 n892643569 n246658041 n246658042 n4051954629 n4051954628 n4051954625 n246658043 n246658044 n246658045 n2889406573 n2889518715 n246658046 n2889406564 n2122155718 n2957481010 n246658047 n2889406590 n2889406567 n246658048 n2889406579 n246658049 n2881973064 n246658050 n246713737 n2885724308 n246658051 n246658052 n654128621 n639341773 n246658053 n639341774 n246658054 n344873866 n2882067741 n246658055 n344873867 n4053507784 n344873886 n344873887 n344873888 n344873889 n344873921 n344873922 n3214384346 n3214384345 n344873923 n3214384347 n3214384348 n344873924 n3214384349 n344873926 n3214384350 n344873927 n2316529610 n344874303 n344874320 n596688429 n596688432 n596688426 n596688428 n596688470 n3015640428 n3015640431 n3015640443 n2629942498 n596688469 n3015640407 n2629942494 n596688532 n596688533 n596688545 n596688538 n596688537 n596688566 n596688569 n596688568 n2629942514 n596688564 n596688596 n596688594 n596688598 n596688600 n622788595 n622788590 n344875009 n344875010 n344875094 n3948782181 n344875095 n344875097 n622788586 n622788585 n596643393 n596643392 n596643396 n596643402 n2629884259 n2629884260 n596643423 n596643418 n596643412 n596643425 n596643614 n596643610 n3678793791 n846233255 n846229589 n846230441 n846229365 n4717413995 n885545394 n4479791321 n5312829218 n4719267202 n4719267203 n5312829215 n4717421995 n4717420384 n4719267602 n846222461 n3678757877 n4466660678 n5312830350 n4867905533 n299869168 n299830867 n299791064 n299783596 n215622910 n215622916 n300060749 n3678598957 n304146378 n3678598960 n304146421 n299867876 n304146419 n303812689 n292451319 n320621112 n300885865 n224964957 n300885873 n4102592328 n300886902 n215665198 n300886900 n4968656178 n215665204 n4667066745 n215665206 n300053585 n5581463070 n215665212 n292447721 n292447673 n292447720 n215665221 n292447576 n292447579 n290233413 n5699762682 n5699762683 n5699762684 n5699762685 
600 700 800 908 ? 630 ? Rue_Herve_Saint_Martin Rue_Herve-Saint-Martin ? Boulevard_de_la_Cote-Vertu ? Route_Transcanadienne ? Autoroute_Felix-Leclerc Autoroute_Metropolitaine Autoroute_Metropolitaine_-_Autoroute_Transcanadienne ? Chemin_de_la_Cote-de-Liesse ? Boulevard_Cremazie_Ouest Boulevard_Cremazie_Est ? Autoroute_Metropolitaine_-_Autoroute_Transcanadienne ? Boulevard_Metropolitain Avenue_Bertin Avenue_de_Bourgneuf Avenue_de_la_Roche_sur_Yon ? Avenue_Vaujours Avenue_de_Vaujours ? Place_Montoire Avenue_de_la_Loire Boulevard_Wilfrid-Pelletier Boulevard_Roi-Rene Avenue_de_Chaumont ? Boulevard_Pierre-Bernard Rue_Robitaille Rue_Claude_Masson Rue_Anne_courtemanche Rue_De_Contrecoeur ? Rue_De_Contrecoeur Rue_Sherbrooke_Est Avenue_Georges-V Rue_Hochelaga Boulevard_Joseph-Versailles Rue_Notre-Dame_Est Avenue_Denis Rue_Sainte-Julie ? 
40711 m
n5699762685 n5699762684 n5699762683 n5699762682 n290233413 n292447579 n292447587 n292447635 n215665221 n292447720 n292447673 n292447721 n215665212 n5581463070 n300053585 n215665206 n4667066745 n215665204 n4968656178 n300886900 n313635122 n313635123 n300886902 n4102592328 n300885873 n224964957 n300885865 n320621112 n292451319 n303812689 n304146419 n299867876 n304146421 n3678598960 n304146378 n3678598957 n300060749 n215622916 n215622905 n299869025 n299869138 n299869168 n299869311 n299869332 n300060257 n2123067348 n2123067349 n596643744 n344876821 n596643592 n596643590 n2281466445 n1261024971 n596643588 n3730837701 n2281466443 n596643542 n596643531 n344876789 n344877826 n344877827 n5051562869 n4867874077 n224964899 n224964903 n596689118 n2629884261 n2629884279 n2629884262 n2629884306 n2629884286 n2629884264 n583124706 n596689042 n596689043 n596689044 n596689047 n596689048 n596687927 n596687929 n596687934 n393565839 n596687940 n596687882 n393565836 n596687859 n344874508 n344874529 n596687811 n596687809 n5837332104 n5837332102 n596687756 n2919476654 n596687747 n246713205 n246713203 n2919476921 n2919476695 n596687730 n246653577 n246653578 n246713217 n246653208 n246653213 n596687612 n246653207 n246653214 n4659430021 n246653215 n4517185895 n393564245 n393565443 n393565127 n246655749 n393564248 n246653212 n4659212541 n4659212539 n246655711 n1448470087 n1448470084 n1448470079 n1448470089 n1448470086 n246657081 n3684334015 n1450239206 n246657080 n246657079 n246657078 n246657077 n246657076 n246657075 n246713555 n246713558 n246657074 n246650154 n246650246 n246657073 n246657613 n246657610 n246657072 n246657546 n246653218 n246657110 n246657071 n246657116 n246657070 n246657119 n246657131 n3684473411 n246657135 n218198359 n218256253 n218256130 n218256032 n218256050 n218256061 n218256078 n218256090 n218256004 n218255980 n218255961 n218255933 n3684541556 n32585247 n4843973064 n218172553 n218199000 n218198967 n218198941 n1394272364 n218234960 n1394272317 n218199085 n764506474 n218234971 n218235055 n218234906 n218210979 n218198885 n218234879 n218234774 n780819632 n218234796 n780819648 n780819702 n218225406 n764524140 n218211206 n433542206 n218225481 n764524116 n218225504 n775041491 n218211228 n795895038 n218225522 n433542213 n218225575 n795895031 n218225622 n806248957 n218225782 n775913773 n438304299 n433542217 n437818291 n773017652 n437865335 n433542223 n437865331 n4298810982 n438303195 n805047810 n437865325 n437865323 n438315032 n802849255 n438318741 n803760702 n437865317 n438299910 n438302079 n437659642 n438323574 n803760684 n213962590 n433542228 n213962638 n213962625 n213962606 n804225719 n213962656 n1589045363 n213962684 n1589045359 n213956951 n1589045353 n437856594 n437855344 n437860725 n437863355 n3625766462 n3625766464 n437854947 n438343136 n3688480096 n3358280668 n29794125 n29794126 n3358280669 n1589045273 n4736804192 n213943458 n1589045260 n213943461 n3688834205 n213966542 n1068583421 n3690825285 n3690855045 n213966550 n2296155972 n213966554 n2296155968 n213966558 n213966564 n1952957790 n1952957794 n1952957766 n3690858349 n1952957844 n1952957853 n1952957848 n3358280663 n3358280664 n3717519229 n504315095 n3717519231 n3690800645 n213943331 n213943322 n437849830 n437850044 n437850240 n437850469 n437850822 n437724520 n437851015 n437851263 n3690722278 n437851454 n1952957711 n3998130638 n3998130640 n5249409193 n437719924 n4245274513 n4839108264 n4245274515 n3358199986 n4245274511 n4107657761 n437852360 n3998130621 n217681516 n3894982472 n3998130629 n3998130614 n217704595 n217718376 n217704603 n217704606 n217704608 n217704614 n217704616 n217704621 n217704628 n5249086420 n217704631 n4107657756 n217704636 n217704641 n217704705 n3997748413 n4111752341 n4111752339 n4111752338 n4111752337 n4111752336 n4111752335 n4111752334 n3904865434 n3904865433 n3904865431 n3997748423 n3997748424 n3997748432 n3997859169 n3997859173 n5699985927 n3904523987 n5209902562 n393562027 n3904523983 n1721713127 n217741314 n217741315 n217741316 n217741318 n217741319 n217741321 n217741323 n217741298 n217741328 n3997748449 n217741329 n3909291226 n3997961174 n5085880718 n4147567234 n1843993871 n3997961177 n3997961168 n1843993861 n3997961167 n1843993870 n4810585640 n1843993868 n473370011 n5281042258 n5989573735 n5989573733 n4065691404 n4065691415 n4065660804 n3313262023 n4065660814 n3714207977 n4065660817 n4065660813 n3313262026 n3313262027 n3714207979 n3313262028 n3714207980 n3313262035 n3313262030 n3313262031 n3313215479 n3714207986 n227825521 n1523560566 n3635475937 n5473745545 n5473745544 n227761044 n2133239416 n2133239405 n3635475934 n2133239484 n2133239474 n5473745539 n5473745540 n98367582 n98367583 n606293542 n3635475929 n110756937 n1734154308 n110756938 n2130285301 n110756939 n2130285315 n110756940 n110756942 n110756943 n2130285325 n2130285308 n2130285313 n227856416 n2130802635 n110756944 n2130802639 n110756945 n110756946 n298530308 n110756948 n110756949 n110756950 n110756951 n110756953 n4836814468 n110756955 n110756956 n4492300032 n245569272 n606288251 n5269061768 n245569274 n110756963 n606288221 n4072253992 n4072253993 n110756966 n110756967 n606288207 n245471083 n245471084 n245471085 n606288208 n245471086 n245471087 n606288206 n245465109 n606288205 n245465113 n245465116 n245465119 n606288204 n245465122 n245465124 n608492960 n245465126 n245465129 n245465131 n245465133 n245465136 n245465138 n4332013051 n1656948338 n245465040 n606288084 n245462217 n245462197 n1657380079 n245378412 n245378397 n4376701409 n5622726693 n1657380075 n606287488 n2585563106 n2585563169 n606287486 n2585563175 n5171648978 n606287476 n245378400 n606287477 n245378401 n5171649019 n245378403 n245378405 n4332043661 n4332043660 n5910858163 n5910858164 n5910858165 n5910858166 n5910859192 n5910858167 n5910858168 n5910858169 n5910858170 n5910858181 n5910858171 n5910858172 n5910858173 n5910858174 n5910858175 n5910858176 n5910858162 n5910858161 n5910858160 n269200908 n5910858180 n5910858177 n269200906 n5910858179 n269200905 n5910858178 n269200904 n269200954 n1176239851 n269200953 n269200952 n269202464 n269202463 n1176240218 n1176239832 n269202462 n269202461 n269201537 n1176240027 n5910858132 n5910858133 n5910858131 n5910858130 n5910858129 n5910858128 n269202460 n269204844 n1176239686 n5910858127 n1176240247 n1176239701 n1176239996 n1176239850 n1176239745 n5910859227 n1176240318 n1176240069 n269202351 n5910859226 n4177452391 n5910858120 n5910858123 n5910858122 n5910858121 n4729960650 n5910858115 n4729960659 n4729960658 n5910858118 n4729960657 n5910858116 n4729960656 n5910858117 n4729960655 n5910858119 n4729960654 n269204649 n1176239933 n2585563344 n2585563346 n5171648967 n2585563348 n2585563350 n2585563352 n2585563354 n2585563356 n2585563358 n2585563360 n5910859194 n5910859210 n2585563342 n5910859212 n5910859211 n5171648791 n2585563286 n2585563285 n2585563284 n5171648970 n5171648794 n5910859221 n2585563283 n2585563282 n2585563281 n2585563280 n5171648782 n2585563278 n2585563277 n2585563276 n2585563275 n2585563274 n2585563272 n2585563270 n2585563268 n2585563266 n5171648937 n2585563261 n2585563259 n2585563257 n2585563256 n2585563254 n4759689436 n2585563250 n2585563248 n4759689433 n4759689434 n2585563246 n2585563244 n2585563242 n2585563240 n2585563239 n2585563237 n5171648939 n2585563235 n5271969280 n606288051 n5171648945 n4095673663 n5271969282 n5271969281 n4095673662 n5171648952 n4095673661 n4095673660 n4095673659 n4095673658 n5171649018 n4095673657 n4095673656 n4095673655 
? Rue_Sainte-Julie Avenue_Hinton Rue_Notre-Dame_Est ? Boulevard_Joseph-Versailles Rue_Hochelaga Avenue_Georges-V Rue_Sherbrooke_Est Rue_Jacques_Porlier Rue_de_Grosbois Avenue_Mercier Boulevard_Roi-Rene Place_Fonteneau ? Rue_Honore-Beaugrand Place_Chenier Rue_Chenier Avenue_du_Bois-de-Coulonge Boulevard_Yves-Prevost Boulevard_des_Roseraies Rue_Beaubien_Est Rue_Saint-Zotique Rue_Saint-Zotique_Est Boulevard_Saint-Laurent Rue_Saint-Zotique_Ouest Rue_Saint-Urbain Rue_Saint-Zotique_Ouest Avenue_du_Parc Avenue_Beaumont Chemin_Rockland Boulevard_Graham Chemin_Canora Avenue_Cornwall Boulevard_Graham Chemin_de_la_Cote-de-Liesse Route_Transcanadienne Chemin_de_la_Cote-de-Liesse Route_Transcanadienne ? Boulevard_de_la_Cote-Vertu Rue_Herve-Saint-Martin Rue_Herve_Saint_Martin ? 630 ? 908 800 700 600 
40677 m
n2320299532 n298177551 n2320299535 n2320299536 n2320299534 n298177538 n298177539 n2130282304 n298177540 n298169931 n298169938 n298169937 n5308862134 n3713066089 n298169913 n4149413880 n4149393768 n4149393769 n665491996 n4330653922 n1523550326 n1523550333 n1523550335 n98361288 n3714207985 n98361287 n2130855932 n1762286708 n1837010392 n5473745557 n227761207 n3714207975 n227761218 n3714207976 n5989573702 n227761225 n227761233 n4414997862 n227761242 n5989573701 n227761252 n5989573700 n4414997857 n227761257 n2076322552 n2076322553 n4414997860 n1757220076 n217815741 n1836996226 n4414997861 n3313262041 n1757220078 n3909246147 n4065691405 n5294424948 n4109587567 n4109587566 n3909246149 n3997961169 n3997961170 n5989573705 n3997961171 n217741367 n1843993864 n1843993871 n4147567234 n5085880718 n3997961174 n3909291226 n217741370 n217741374 n217741375 n217741376 n217741378 n217741380 n217741381 n217741386 n3909242494 n217741389 n4403532435 n3997748435 n3997748434 n3997748433 n217741394 n3997859177 n2482332034 n3997748394 n2482332035 n3997748430 n2482332029 n3997748428 n3997859172 n3997748429 n3997859170 n3997748427 n3997748426 n2482332026 n3997748425 n2482332027 n1228684844 n2482332028 n2482332033 n2482332031 n393562012 n3383475614 n3997859174 n3997748412 n4247378761 n1068601246 n1247091221 n1068601248 n217704514 n3895001098 n3895001100 n3895001103 n217704526 n217704530 n3892919898 n3892919901 n3998150786 n217704551 n217704557 n217704559 n217704563 n3895001115 n217704569 n3998130615 n217704574 n4109608398 n4107657758 n4107657759 n4107657760 n3895005806 n3358199985 n949071151 n213955340 n213955335 n1827633311 n213955332 n1827633432 n213955321 n1827633309 n1827633317 n213955316 n865023808 n213955311 n949071153 n213955306 n213955302 n1827633345 n213955298 n1827633436 n1827633462 n1827633424 n213955429 n4774155870 n4774155879 n1827633292 n1765657082 n2259046117 n2259046118 n437788171 n3405413696 n3405413701 n221106405 n3405413676 n3405413685 n221128630 n3405413681 n5706511992 n127968322 n5706511993 n4433257160 n31700226 n4599914669 n2621726442 n3405413635 n213649418 n126102457 n3405413636 n3405413274 n2636973099 n31700227 n4171698985 n2491806937 n3405423341 n2126476709 n31700228 n3405423342 n3148354120 n31700229 n3148354121 n31700230 n126111827 n1969886546 n1969886568 n4102812573 n1969886642 n126111828 n3405413273 n29239077 n124504833 n1969886584 n31700231 n391531806 n3215289261 n3733802878 n31700232 n4504112773 n3215289262 n1456706546 n3215289252 n29239079 n3215289251 n1038434043 n29795235 n5413741437 n5413741436 n5413741435 n1420077701 n29795236 n221083345 n29795237 n221083337 n3691422639 n29795238 n221083341 n1852904544 n596988539 n1038433034 n1038433026 n596988529 n1852904579 n437736342 n1634749428 n1634749427 n209046812 n209046810 n844393061 n3383056867 n209046809 n1564581757 n1564507930 n1564581792 n1564581789 n1564507932 n1564507950 n1564507931 n1564507945 n1564507943 n3383056843 n1564507939 n1564507941 n1564507908 n1568816918 n31777145 n31776848 n2342893152 n1571427824 n31701566 n1573345810 n31701565 n1573345797 n31701562 n1568816922 n1574964285 n1574964280 n1574964293 n1574964296 n31701561 n1573441882 n29794077 n31705844 n31705845 n476659828 n31705846 n3573673657 n31705847 n476659809 n31705848 n208863264 n459929695 n459929708 n459929693 n459929685 n459929682 n459929692 n3373392907 n208863280 n458975126 n3373392909 n459929565 n3197882470 n31776724 n3197882469 n286125215 n31631609 n304898716 n208955038 n31777186 n4170219645 n1382525048 n1382525072 n26232977 n3225998989 n300161225 n300161137 n3226012315 n208962803 n5077277886 n5073778943 n5077277876 n5077277881 n5077277891 n5073778944 n5077277879 n5073778945 n5073778946 n5073778947 n5073778948 n5073778949 n5077277889 n5073778950 n5073778951 n5073778952 n5077277888 n5073778953 n5077277884 n4170197677 n208962857 n215694691 n4024140474 n3998663471 n215694695 n3998663468 n3998331617 
Rue_Gold Rue_Ward Rue_Authier Chemin_de_la_Cote-de-Liesse ? Chemin_de_la_Cote-de-Liesse ? Boulevard_Graham ? Boulevard_Laird Boulevard_Graham ? Chemin_Rockland Avenue_Davaar Chemin_de_la_Cote-Sainte-Catherine Avenue_du_Mont-Royal_Ouest ? Avenue_Duluth_Ouest Rue_Clark Avenue_des_Pins Avenue_Laval ? Rue_Saint-Denis Rue_Sainte-Catherine_Est ? Rue_du_Champ-de-Mars Rue_Berri ? 
12576 m
n3998331617 n3998422933 n3998305185 n3998422931 n3998422935 n4687034518 n4071487864 n3998339675 n2007138954 n3998345718 n3994339770 n1382526200 n26233314 n3381382226 n3381382221 n215702338 n5995731364 n3381382222 n3381382227 n2010125806 n26233315 n2007138968 n2007138975 n460315113 n2007139004 n2007139005 n1860899910 n2007139002 n26235136 n2007138970 n1996184909 n4513273311 n471723768 n1867319704 n29794337 n5970477336 n5970477335 n1996184907 n29794338 n5970477333 n5970477334 n3398373694 n3391132737 n29794285 n29795957 n3398373695 n580993294 n580993295 n29793357 n3489111412 n4170219634 n29794315 n29794316 n1550039343 n29794074 n237603328 n29794075 n29794076 n31776104 n471062913 n471062543 n29794077 n29794078 n209027846 n269197137 n29794079 n29794080 n29784599 n29794135 n1566774846 n1566774845 n1784832904 n29794134 n1573345816 n5080594764 n3383056849 n3383056864 n3383056863 n4171674879 n30452958 n3383056861 n3383056860 n3383056859 n209046809 n3383056867 n844393061 n209046810 n209046812 n1634749427 n31705445 n5159818605 n31705614 n31705615 n31705533 n1568812835 n31705616 n1420077724 n1568812799 n31705617 n4504112772 n31705133 n596988539 n1852904544 n221083341 n29795238 n3691422639 n221083337 n29795237 n221083345 n29795236 n1420077701 n5413741435 n5413741434 n5413741433 n29795235 n1038434043 n3215289251 n29239079 n3215289252 n1456706546 n3215289262 n4504112773 n31700232 n3733802878 n3215289261 n391531806 n31700231 n1969886584 n124504833 n29239077 n3405413273 n126111828 n1969886642 n4102812573 n1969886568 n1969886546 n126111827 n31700230 n3148354121 n31700229 n3148354120 n3405423342 n31700228 n2126476709 n3405423341 n2491806937 n4171698985 n31700227 n2636973099 n3405413274 n3405413636 n126102457 n5706678511 n126102458 n3405413669 n2491806939 n126092909 n3691036492 n2491807003 n3405413661 n3691036494 n3405413680 n126073338 n3405413679 n3405413675 n221106400 n3405413700 n3711818441 n3405413697 n437719778 n1818906582 n5985249290 n209390697 n1827633494 n3405413708 n428525931 n2378096434 n2378096433 n2378096439 n2378096440 n2378096442 n2378096443 n2378096444 n2378096441 n2378096438 n2378096437 n2378096436 n2378096435 n213955267 n1827633308 n1827633453 n1827633409 n213955326 n1827633367 n213955263 n213955261 n1827633342 n1827633353 n949071159 n3358199986 n4245274511 n4107657761 n437852360 n3998130621 n217681516 n3894982472 n3998130629 n3998130614 n217704595 n217718376 n217704603 n217704606 n217704608 n217704614 n217704616 n217704621 n217704628 n5249086420 n217704631 n4107657756 n217704636 n217704641 n217704705 n3997748413 n4111752341 n4111752339 n4111752338 n4111752337 n4111752336 n4111752335 n4111752334 n3904865434 n3904865433 n3904865431 n3997748423 n3997748424 n3997748432 n3997859169 n3997859173 n5699985927 n3904523987 n5209902562 n393562027 n3904523983 n1721713127 n217741314 n217741315 n217741316 n217741318 n217741319 n217741321 n217741323 n217741298 n217741328 n3997748449 n217741329 n3909291226 n3997961174 n5085880718 n4147567234 n1843993871 n3997961177 n3997961168 n1843993861 n3997961167 n1843993870 n4810585640 n1843993868 n473370011 n5281042258 n5989573735 n5989573733 n4065691404 n4065691415 n4065660804 n3313262023 n4065660814 n3714207977 n4065660817 n4065660813 n3313262026 n3313262027 n3714207979 n3313262028 n3714207980 n3313262035 n3313262030 n3313262031 n3313215479 n3714207986 n227825521 n1523560566 n1523560565 n5473745546 n1523560564 n4330653927 n1523560562 n5136182191 n1523560560 n665491996 n4149393769 n4149393768 n4149413880 n298169913 n298169912 n298169910 n298169909 n4332066066 n3713066091 n298169931 n298177540 n2130282304 n298177539 n298177538 n2320299534 n2320299536 n2320299535 n298177551 n2320299532 
? Rue_Notre-Dame_Est Boulevard_Saint-Laurent Rue_Rachel_Ouest ? Avenue_du_Parc Chemin_de_la_Cote-Sainte-Catherine Avenue_McEachran Avenue_Rockland Chemin_Rockland Boulevard_Graham Chemin_Canora Avenue_Cornwall Boulevard_Graham Chemin_de_la_Cote-de-Liesse ? Chemin_de_la_Cote-de-Liesse Boulevard_Alexis-Nihon Rue_Ward Rue_Gold 
12605 m
n1932647892 n1932648378 n2072391086 n1700105852 n1700105848 n1700228901 n1700105834 n1700105830 n1700105828 n1700228893 n1700105816 n3710046216 n32663072 n1700228887 n1700105813 n32663056 n32663010 n32663142 n32662032 n1568220690 n5015624911 n1700228881 n1568220679 n32662030 n32662029 n32764597 n32662028 n1568220695 n32662027 n1700549617 n1568220693 n1700549620 n1700549621 n32662023 n1568220678 n1700549626 n1700549627 n5015624905 n1700549623 n1700549618 n5342978314 n1700549616 n1700549619 n5342978315 n1700549624 n1700549625 n5342978316 n1700549628 n5342978317 n1700549629 n1700338630 n1700338632 n290743837 n32662009 n290742701 n5342978318 n1700338651 n5015624891 n5015624885 n1700338671 n3709936591 n32662002 n1700338680 n1700338681 n1700338682 n1763614941 n5015619242 n4844283854 n1700508079 n5277798980 n4844283853 n1700508086 n1700508088 n5277798979 n1700508092 n4844283852 n1700508101 n4844283851 n5015619228 n1700508110 n4844283850 n1700508114 n1700508117 n5015619229 n1700508123 n4844283849 n1700508130 n1700508136 n5576658978 n4299024949 n5576658977 n1700508143 n5576658975 n5576658976 n1700508153 n4844283848 n1700508167 n4299024950 n1700508172 n1700508175 n5235567802 n285901819 n5235567801 n285901820 n285901916 n2178524846 n285902511 n286260117 n3709764576 n285901816 n3709764571 n285901815 n285901814 n285901914 n285901533 n298296482 n1387681393 n1387681398 n4293766308 n1387459781 n4299140646 n1387459794 n3819743723 n1387459800 n1387459811 n1387459810 n4379722805 n441281966 n5116306765 n5116306768 n5116306769 n248512600 n1420643522 n5116306744 n248512596 n4732163625 n4732163622 n248512595 n1769154356 n1769154353 n4740551609 n4732163384 n1769154311 n1769154342 n5015745844 n3740492595 n4513516134 n5116306738 n248512586 n248512584 n1770135123 n248512583 n248512582 n248512580 n248512579 n248512578 n4844283845 n3740492609 n3740161259 n1770135162 n5116303920 n5799330495 n5116306521 n5116306522 n5116306526 n5116306589 n274337300 n3740492605 n1280445012 n248512681 n3740474590 n1768238696 n248512680 n611962844 n4844283838 n248512679 n248512678 n248512677 n6049966510 n6049966507 n116415774 n4198102082 n274354004 n274284077 n274354357 n275334976 n274354074 n274355369 n274355993 n1021599601 n274301357 n3663918244 n3663918246 n274301542 n274301543 n274301544 n274301545 n3723248337 n276646139 n2967765183 n3723248338 n276634440 n2967765184 n276634452 n276634517 n3662362910 n274301546 n276634542 n276611663 n276634614 n274301727 n276634888 n276634968 n276635145 n3662362914 n276611326 n276648763 n3662362917 n276648143 n276611327 n276611328 n276628885 n244767075 n3609899014 n4506528521 n3662376030 n276640080 n4506528520 n276639721 n5514298821 n5422069411 n5514298824 n244808758 n244808770 n5412082177 n5213077025 n3417988023 n3610120970 n606287276 n5213077430 n3720909172 n5213077424 n244767100 n5213077096 n5213077115 n244767063 n3723134909 n4131760413 n4665722651 n1210918106 n1210918124 n1210918190 n1820984198 n4665722654 n1820984201 n3670525031 n244830334 n244830339 n244830344 n3670525029 n1210918068 n3670525030 n5213329022 n245793152 n4665722655 n4134513863 n4134513859 n4134513860 n4134513861 n5213329205 n4134513862 n4131759861 n4131759862 n4874141684 n4131760414 n4131759863 n4131759864 n4131759865 n5213329192 n4131759866 n4131760430 n5213329144 n5213329114 n5213329115 n5213329116 n5213329117 n5213329118 n5213329119 n5213329120 n5213329121 n5213329122 n35835055 n4770442228 n4770442233 n4770442234 n4666025736 n4666025738 n35835057 n4666025751 n1213708587 n113965462 n1213708283 n95864045 n1213708217 n1213708259 n98404341 n35835066 n1212602400 n35835068 n35835070 n35835071 n35835073 n35835074 n35835075 n6050150456 n98968254 n98970809 n98970810 n98970811 n98970812 n98970813 n98970814 n98970815 n98967738 n98972139 n3640108611 n98972142 n98972144 n98972145 n98972146 n1941134733 n1941134736 n1941134735 n95315673 n1952715726 n102580792 n5276089208 n106399974 n111632924 n111633030 n111629953 n3729341544 n95315690 n3729341527 n95315695 n110501832 n116112873 n110650949 n5344773130 n110650929 n4613731865 n5344773131 n95315700 n1952715731 n95315705 n4613709094 n4515391070 n110641959 n4515391074 n95315711 n95315718 n96058485 n4613709095 n95315724 n95315729 n96059368 n1779228630 n96060293 n95315735 n2635412668 n605205712 n605205714 n4506424204 n4506365573 n4506365574 n4611846086 n4506305885 n96049013 n4506310191 n3719977821 n1931881881 n1931881880 n604124924 n3730314982 n1363761451 n604126428 n604126427 n1975148052 n3730432845 n4340862279 n282251246 n3730433701 n3730429338 n282252891 n96049018 n2629967868 n4340864402 n412321782 n3730418681 n3730415909 n604123385 n1931875163 n5272836532 n604123386 n5272829492 n4340900133 n96049026 n604129314 n2625939757 n96049028 n5273491278 n226330509 n3736946874 n1929185768 n4078837781 n1941152981 n3736946884 n604130876 n2629967808 n1941152983 n1926292390 n1926294962 n4710841791 n369600118 n369599816 
? Rue_Centrale 67e_Avenue Boulevard_LaSalle ? Piste_cyclable_des_Berges ? Chemin_de_LaSalle Chemin_du_Canal Chemin_des_Iroquois ? Boulevard_Saint-Joseph 25e_Avenue Rue_Victoria 37e_Avenue Rue_Victoria 46e_Avenue Rue_Provost Rue_Victoria Boulevard_Bouchard Boulevard_Montreal-Toronto Rond-point_Dorval Boulevard_Montreal-Toronto ? Autoroute_du_Souvenir ? Avenue_de_la_Gare ? Boulevard_Saint-Jean Boulevard_Gouin_Ouest Chemin_de_la_Rive-Boisee 
25023 m
n369599816 n369600118 n4710841791 n1926294962 n1926292390 n1941152983 n2629967808 n604130876 n3736946884 n1941152981 n4078837781 n1929185768 n3736946874 n226330509 n5273491278 n96049028 n96049032 n604130763 n1511545302 n110796375 n604123364 n4340900132 n604123363 n285364253 n604123384 n96049040 n412321781 n4340864401 n96049043 n3730443220 n282252083 n3730429339 n96049048 n3730433696 n282251247 n4340862278 n3730437060 n1975140710 n1975145247 n4506277419 n4506277417 n96049053 n604126426 n604126425 n1363761457 n3730317073 n1931880382 n3730317072 n1931882554 n280888571 n3719976994 n96049057 n116252031 n4611846087 n2635412669 n4506424200 n605205715 n605205711 n2635412660 n17074252 n2635412644 n96060386 n1779228631 n96053878 n658976970 n658976969 n96058637 n95315640 n95315643 n1952715725 n1952715723 n16874278 n110641964 n4515391070 n4515391071 n4515391076 n4515391078 n4515391079 n3418639771 n3105659135 n3105659137 n3105659134 n3418640625 n245802880 n3418640594 n3418639789 n3418639788 n3418639787 n3418639786 n3418639785 n3418639784 n3418639783 n245803777 n245803781 n245803784 n3418639781 n3418639780 n245803786 n3418639774 n3418639775 n3418639776 n3418639777 n245803785 n4319307706 n3418640612 n5783965781 n116131762 n116130821 n116129037 n116128007 n116104310 n116190916 n116146726 n116104308 n3729299727 n116103444 n116103445 n116105515 n116105516 n160838215 n116198420 n3264527805 n106622979 n106622972 n106667924 n167405166 n1960951858 n106610436 n106610451 n106610448 n98924778 n98924777 n106408240 n3729341536 n4746107868 n5276089592 n5276089595 n2635672524 n5064221755 n167355428 n166852169 n3729169189 n106412455 n4504052059 n5064221748 n98924773 n98924772 n5064221747 n98924770 n98924768 n106449406 n106449411 n98924766 n106449522 n98924765 n98921976 n470072386 n1212603209 n1212602285 n1212602991 n1212602698 n470072389 n1212602302 n1212602306 n1212603236 n1212602663 n1212602864 n1212602933 n1212602788 n1212602321 n1212602368 n1212603007 n1212602442 n1212602782 n106467233 n1767732494 n1767732495 n470072663 n106467244 n1212603175 n106473113 n605205932 n605205934 n106479362 n605205942 n605205941 n106479363 n106482019 n106482025 n106482027 n106482032 n244494995 n106482038 n113963149 n113963150 n5214989837 n244499180 n113963152 n113963153 n1213708334 n98398536 n4131759835 n4131759836 n4131759837 n4217046150 n4131759838 n4131759839 n4131759840 n4666025742 n4131759841 n4131759842 n4131759843 n1214769881 n4141678622 n4141678630 n4131759846 n4131759847 n4131759848 n4666238763 n5213329160 n4131759850 n4666238764 n4131759851 n4131759852 n4666238765 n4131759853 n4131759854 n4134513888 n4131759855 n4131760390 n5213329169 n4131760391 n4134516005 n4131760402 n5213034623 n4131760403 n4131760404 n4131760405 n4134516006 n4131760406 n4131760407 n4131760408 n4131760409 n4508145572 n4131760410 n3670525034 n4131760411 n4131760412 n4665722652 n4131760413 n3723134909 n244767063 n5213077115 n5213077096 n244767100 n5213077424 n3720909172 n5213077430 n606287276 n3610120970 n3417988023 n5213077025 n5412082177 n244808770 n244808758 n5514298824 n5422069411 n5514298821 n276639721 n4506528519 n4506528518 n3662369635 n4506528521 n3609899014 n244767075 n276628885 n276611328 n276611327 n276648143 n3662362917 n276648763 n276611326 n3662362914 n276635145 n276634968 n276634888 n274301727 n276634614 n276611663 n3662362911 n274301546 n3662362910 n276634517 n276634452 n2967765184 n276634440 n3723248338 n2967765183 n276646139 n3723248337 n274301545 n274301544 n274301543 n5355696617 n5355696615 n3663918245 n274301357 n1021599601 n274355993 n274355369 n274354074 n275334976 n274354357 n274284077 n274354004 n4198102082 n116415774 n6049966507 n6049966510 n248512677 n248512678 n248512679 n4844283838 n611962844 n248512680 n1768238696 n3740474590 n248512681 n1280445012 n3740492605 n274337300 n5116306589 n5116306526 n5116306522 n5116306521 n5799330495 n5116303920 n1770135162 n3740161259 n3740492609 n4844283845 n248512578 n248512579 n248512580 n248512582 n248512583 n1770135123 n248512584 n248512586 n5116306738 n4513516134 n3740492595 n5015745844 n1769154342 n1769154311 n4732163384 n4740551609 n1769154353 n1769154356 n248512595 n4732163622 n4732163625 n248512596 n5116306744 n1420643522 n248512600 n5116306769 n5116306768 n5116306765 n441281966 n4379722805 n1387459810 n1387459811 n1387459800 n3819743723 n1387459794 n4299140646 n1387459781 n4293766308 n1387681398 n1387681393 n298296482 n285901533 n285901914 n285901814 n285901815 n3709764571 n285901816 n3709764576 n286260117 n3883610749 n5235567802 n1700508175 n1700508172 n4299024950 n1700508167 n4844283848 n1700508153 n5576658976 n5576658975 n1700508143 n5576658977 n4299024949 n5576658978 n1700508136 n1700508130 n4844283849 n1700508123 n5015619229 n1700508117 n1700508114 n4844283850 n1700508110 n5015619228 n4844283851 n1700508101 n4844283852 n1700508092 n5277798979 n1700508088 n1700508086 n4844283853 n5277798980 n1700508079 n4844283854 n5015619242 n1763614941 n1700338682 n1700338681 n1700338680 n32662002 n3709936591 n1700338671 n5015624885 n5015624891 n1700338651 n5342978318 n290742701 n32662009 n290743837 n1700338632 n1700338630 n1700549629 n5342978317 n1700549628 n5342978316 n1700549625 n1700549624 n5342978315 n1700549619 n1700549616 n5342978314 n1700549618 n1700549623 n5015624905 n1700549627 n1700549626 n1568220678 n32662023 n1700549621 n1700549620 n1568220693 n1700549617 n32662027 n1568220695 n32662028 n32764597 n32662029 n32662030 n1568220679 n1700228881 n5015624911 n1700105812 n3709995172 n32663142 n32663010 n32663056 n1700105813 n1700228887 n32663072 n3710046216 n1700105816 n1700228893 n1700105828 n1700105830 n1700105834 n1700228901 n1700105848 n1700105852 n2072391086 n1932648378 n1932647892 
Chemin_de_la_Rive-Boisee Boulevard_Gouin_Ouest Boulevard_Saint-Jean Avenue_Holiday ? Boulevard_Hymus Avenue_Hastings Avenue_de_Dieppe ? Avenue_Circle Avenue_Coolbreeze Avenue_de_Windward_Crescent Avenue_Sunnyside ? Avenue_Sunnyside Avenue_Donegani Avenue_Cardinal ? Avenue_de_l'Eglise Chemin_Herron Rond-point_Dorval Boulevard_Montreal-Toronto Boulevard_Bouchard Rue_Victoria 25e_Avenue Boulevard_Saint-Joseph ? Chemin_des_Iroquois Chemin_du_Canal Chemin_de_LaSalle ? Piste_cyclable_des_Berges ? Boulevard_LaSalle 68e_Avenue Rue_Centrale ? 
24959 m
n182070154 n26232418 n209424667 n3373392904 n237602087 n237602091 n3373392903 n209046764 n26232424 n209049348 n209046761 n1653821650 n26232426 n26232428 n1859173330 n31701547 n3199029695 n26232430 n1574991718 n1574991724 n31777142 n876590727 n29794134 n1573345816 n5080594764 n3383056848 n3383056847 n3383056846 n3383056845 n3383056844 n3383056843 n3383056842 n3383056841 n1573620080 n1563343451 n1563343452 n1563343449 n1563343450 n1563343448 n1563343455 n1563343453 n1563343454 n1563346410 n1563346417 n4154752689 n1563346402 n1563346412 n1563346418 n1563346414 n3383231124 n4154730390 n4154752791 n3383231125 n4154729090 n4154752789 n2626194658 n4154752790 n1574971782 n1574971790 n1574971758 n1574971775 n1574971776 n1574971751 n1244412452 n31706063 n31706062 n3383231141 n31706399 n4515421366 n355413164 n3383231144 n31706398 n355413165 n31706397 n1028394376 n3383399193 n31706396 n31706395 n31706267 n29793981 n1573512778 n332514509 n31706587 n31706588 n1573503388 n1472721975 n31706590 n31706591 n1573528081 n1573528005 n1573528071 n1573528086 n1573528080 n1232111538 n1932256668 n31706595 n259319852 n6016305190 n6016305191 n31706597 n208991307 n31706598 n3404140434 n31706599 n1232111532 n31706600 n4096440331 n31706601 n208991315 n3506219505 n1232111535 n31706602 n4375566376 n31706604 n1636615736 n3491339110 n1576253578 n31706605 n31461015 n332515084 n31461016 n31461017 n618066335 n618066334 n31703742 n1574804145 n1574804150 n3404142950 n1574804110 n1574804096 n1574804140 n1574804164 n31703698 n4504394166 n4504394165 n615101608 n4320305291 n4320305290 n31703697 n31703696 n31703695 n5105915741 n31703694 n5105915740 n31703693 n31703692 n31703690 n3397201739 n31703689 n213301490 n4486143261 n213301450 n213301442 n1768197347 n3445227844 n1768197346 n5414068680 n31703072 n5414068687 n2284252346 n2284252345 n261743933 n4687077904 n261744944 n1068491436 n3445227868 n29796796 n445787805 n3445227880 n31702631 n3445227878 n3397201737 n443451105 n443451108 n3632030026 n443948880 n31703074 n869428522 n4349838190 n869416916 n4349834387 n913862869 n31703076 n412641289 n3555215006 n31703077 n2106085871 n1038439059 n31703078 n405129231 n3707177416 n1038439029 n3775435715 n1038439034 n3555351940 n90443807 n90443776 n90443772 n405129234 n1038439039 n1038439024 n1038439027 n411766212 n411744183 n405129235 n405129236 n90443729 n1767776828 n5414142185 n5414142184 n5414142183 n97876410 n3560183207 n97876413 n224689008 n5041151157 n97876421 n3472438220 n224688894 n1767776797 n97876423 n3560183203 n97876426 n224688908 n3562585293 n97876431 n97876433 n3562569600 n97876436 n3562600794 n97876387 n97876440 n5066681571 n5066681570 n1650473329 n97876448 n224688986 n3565062202 n1647511645 n1647511608 n224668158 n2883403287 n1647511586 n3666581424 n1237705334 n1237705321 n1237705330 n1237705325 n415140285 n415140281 n415140282 n415140283 n415140284 n665705372 n5910426095 n5910426094 n5162931598 n298296450 n298296449 n1242690436 n1242690444 n5202904499 n5202904498 n248512037 n3716531975 n1242690446 n248512034 n4672234232 n248512033 n224645046 n3716531973 n615017642 n4672234231 n615017641 n3677336665 n3710280343 n615017615 n615017614 n615017612 n316169615 n615017611 n2189083246 n2189083245 n2189083248 n615017605 n2189081674 n2189081686 n2189081682 n615017596 n615017593 n615017594 n615017583 n4266832292 n4266799629 n4266794997 n615017574 n5416721309 n615017564 n316170000 n371481918 n615017557 n1764326135 n2189049738 n2189049741 n615017515 n2188531390 n4017246566 n615017514 n2188531351 n1700539704 n615001784 n615001783 n4503897554 n1104599366 n2140384204 n2140384272 n2140384265 n4503897551 n5277815720 n1104599632 n1104599369 n5277815712 n2027448925 n2027448898 n2027448927 n2027448878 n2027448967 n2027448969 n2027448869 n2027448986 n2027448886 n2027448895 n2140367029 n3010606896 n2027448888 n2140367042 n2027448971 n2027448923 n2027448880 n2027448890 n2027448961 n2131787824 n3011782172 n5277816726 n2328628846 n2328628854 n2328628850 n3007923461 n2328628852 n2328628842 n2328628836 n2328628838 n2328628840 n2328628844 n225685114 n2140361943 n2072388330 n2072388316 n2072388347 n3007773195 n2072388340 n2072388332 n2072388324 n2072388322 n2072388343 n3007782701 n2072388325 n2072388342 n2072388344 n2316598627 n2316598626 n286457431 n286458321 n286457742 n1764326055 n286460224 n286460179 n1764309494 n286459817 n286459821 n286459815 n286461791 n3710054124 n1382176510 n286459820 n5277816748 n3710052970 n1382176520 n2155510779 n371751078 n32822010 n4502307436 n2155510770 n3710123153 n2704423264 n1763567176 n2704423260 n2704423255 n2704423251 n1763567159 n1763567157 n3710123156 
Avenue_du_Mont-Royal_Est Avenue_du_Mont-Royal_Ouest Rue_Saint-Urbain Rue_Rachel_Ouest ? Avenue_des_Pins Chemin_de_la_Cote-des-Neiges ? Avenue_Docteur_Penfield Avenue_Atwater Parc_du_premier_chemin_de_fer ? Avenue_Lionel-Groulx Rue_Rose-de-Lima Parc_du_premier_chemin_de_fer Place_Saint-Henri Rue_Notre-Dame_Ouest Chemin_de_la_Cote-Saint-Paul ? Piste_multifonctionnelle ? Rue_Saint-Patrick Rue_Hamilton Rue_Jacques-Hertel ? Rue_Mazarin Rue_Jolicoeur Avenue_Newman Avenue_Irwin ? Rue_Jean-Chevalier Boulevard_Shevchenko Rue_Jean-Brillon 
14010 m
n3710123156 n1763567157 n1763567159 n2704423251 n2704423255 n2704423260 n1763567176 n2704423264 n3710123153 n2155510770 n4502307436 n32822010 n1764326009 n2704423269 n286454967 n3710123155 n5355643953 n1382176517 n286459820 n1382176510 n3710054124 n286461791 n286459815 n286459821 n286459817 n1764309494 n286460179 n286460224 n1764326055 n286457742 n286458321 n286457431 n2316598626 n2316598627 n5355643952 n415142135 n2328791836 n415142134 n415142133 n32821764 n1700539673 n1700539674 n1700539678 n1700539680 n32821804 n2140361849 n614983251 n614983252 n614983295 n614983292 n614991271 n614991275 n615001759 n614991297 n614991290 n615007133 n3794512357 n3794512358 n225690804 n301299338 n301299322 n985919784 n316170000 n615017564 n5416721309 n615017574 n4266794997 n4266799629 n4266832292 n615017583 n615017594 n615017593 n2189081689 n316170117 n316170118 n2189081680 n2188384324 n615017605 n2189083248 n2189083245 n2189083246 n615017611 n316169615 n615017612 n615017614 n615017615 n2189081693 n301496000 n3710280342 n3677326004 n615017642 n3716531973 n224645046 n248512033 n4672234232 n248512034 n1242690446 n3716531975 n248512037 n5202904498 n5202904499 n1242690444 n1242690436 n298296449 n298296450 n5162931598 n5910426094 n5910426095 n665705372 n415140284 n415140283 n415140282 n415140281 n415140285 n1237705325 n1237705330 n1237705321 n1237705334 n3666581424 n1647511586 n2883403287 n224668158 n1647511608 n1647511645 n3565062202 n224688986 n97876448 n1650473329 n5066681570 n5066681571 n97876440 n97876387 n3562600794 n97876436 n3562569600 n97876433 n97876431 n3562585293 n224688908 n97876426 n3560183203 n97876423 n1767776797 n224688894 n3472438220 n97876421 n5041151157 n224689008 n97876413 n3560183207 n5414142187 n5414142186 n5414142185 n1767776828 n90443729 n405129236 n32124729 n3559128786 n90443559 n32124731 n411744182 n32124732 n32124733 n3557556100 n89408360 n3557524413 n32124735 n32124736 n32124737 n3775435731 n32124738 n1038439018 n90443619 n1038439043 n2106085876 n1038439038 n32124739 n31703077 n31703543 n31703544 n261751772 n31703545 n31703546 n1272590642 n443451110 n443938658 n31703548 n443451111 n3445227879 n3397201720 n443451109 n615101609 n3397201701 n3445227881 n666062887 n3445227884 n2519427852 n2519427854 n2519427863 n2519427866 n2519427870 n2519427873 n2519427877 n2519427879 n2519427883 n2519427885 n2519427895 n2519427897 n4353179112 n29796798 n2519353237 n2519353224 n29796786 n4729971900 n3390027982 n3491260134 n4729976455 n4729976453 n4729976458 n4729976454 n3503150011 n4728623385 n26233224 n3491339112 n4128209791 n26233225 n4035494982 n3397213408 n26233226 n4033732383 n26233227 n3397213401 n208991351 n4062517998 n29796724 n208991310 n3397213429 n26233228 n3397213407 n3445227835 n208991292 n4024139113 n26233229 n4024427767 n3445227834 n1204328687 n1576439753 n4711879508 n26233230 n4711879510 n1204328684 n6012954934 n183654252 n6012988000 n1768141162 n26233231 n6027483130 n1765696573 n4464252825 n29796963 n4464252827 n1307207260 n1563386640 n1563386644 n2695701227 n31706824 n31706825 n3404140426 n264346055 n31706827 n264345847 n1573581597 n1573581609 n31706828 n31706829 n229539562 n31706830 n1573581661 n229539556 n31706831 n1573581654 n1472721954 n31706832 n229533881 n31706833 n229534226 n1573581646 n1573503375 n1573581630 n31706588 n31706587 n332514509 n1573512778 n29793981 n31706267 n31706266 n31706265 n3383399194 n31706264 n4515421371 n31706263 n31706262 n4515421370 n31706123 n4515421368 n1573548252 n4515421367 n4154752690 n31706063 n1244412451 n355412776 n355412782 n355412784 n355412786 n3383231127 n467590345 n355412789 n31705442 n1563346407 n3383231120 n1374347245 n30453005 n1778791554 n1574971778 n30452955 n30452956 n844393068 n844393067 n844393066 n844393065 n844393064 n844393063 n844393062 n844393061 n209046810 n1563343272 n1564581794 n3383056852 n31777146 n3570111174 n3570132012 n26232432 n3199029693 n26232430 n3199029695 n31701547 n1859173330 n26232428 n26232426 n1653821650 n209046761 n209049348 n26232424 n209046764 n3373392903 n237602091 n237602087 n3373392904 n209424667 n26232418 n182070154 
Rue_Jean-Brillon Boulevard_Shevchenko Rue_Jean-Chevalier ? Rue_Louis-Hebert Boulevard_Guy-Bouchard Boulevard_Newman Avenue_Newman Rue_Jolicoeur Rue_Jogues Rue_Jacques-Hertel ? Rue_Jacques-Hertel Rue_Beaulieu Rue_Saint-Patrick ? Piste_multifonctionnelle ? Chemin_de_la_Cote-Saint-Paul Rue_Notre-Dame_Ouest Place_Saint-Henri Rue_Saint-Jacques Avenue_Atwater ? Rue_Sainte-Catherine_Ouest Rue_Saint-Marc Rue_Sherbrooke_Ouest Rue_Peel Avenue_Docteur_Penfield Avenue_des_Pins Avenue_du_Parc Avenue_Duluth_Ouest ? Avenue_de_l'Esplanade Avenue_du_Mont-Royal_Ouest Avenue_du_Mont-Royal_Est 
14162 m
