LEA	n5270380451	n2187158765	;
LEA	n2187158765	n5270380451	;
WILLIAM	n4095673655	n5699762685	;
WILLIAM	n5699762685	n4095673655	;
EMMA	n2320299532	n3998331617	;
EMMA	n3998331617	n2320299532	;
THOMAS	n1932647892	n369599816	;
THOMAS	n369599816	n1932647892	;
FLORENCE	n182070154	n3710123156	;
FLORENCE	n3710123156	n182070154	;
