LEA	n623679648	n401417796	;
LEA	n401417796	n623679648	;
WILLIAM	n401416433	n430551739	;
WILLIAM	n430551739	n401416433	;
EMMA	n401417799	n401417901	;
EMMA	n401417901	n401417799	;
THOMAS	n401417889	n623679955	;
THOMAS	n623679955	n401417889	;
FLORENCE	n401417888	n401417797	;
FLORENCE	n401417797	n401417888	;
