n401416336 (45.52905,-73.01154) ;
n401416432 (45.52236,-73.00759) ;
n401416433 (45.52413,-73.00498) ;
n401417669 (45.52667,-73.01262) ;
n401417671 (45.52268,-73.0071) ;
n401417672 (45.52822,-73.0104) ;
n401417674 (45.52674,-73.01259) ;
n401417688 (45.52732,-73.01172) ;
n401417689 (45.52726,-73.01168) ;
n401417690 (45.52654,-73.01082) ;
n401417691 (45.52648,-73.01073) ;
n401417692 (45.52643,-73.01059) ;
n401417693 (45.52643,-73.01044) ;
n401417694 (45.52641,-73.0102) ;
n401417695 (45.52635,-73.01007) ;
n401417712 (45.52486,-73.00392) ;
n401417759 (45.52713,-73.00468) ;
n401417762 (45.52686,-73.0049) ;
n401417766 (45.52741,-73.01158) ;
n401417767 (45.52747,-73.01168) ;
n401417768 (45.52805,-73.01242) ;
n401417790 (45.52345,-73.00817) ;
n401417791 (45.52352,-73.00803) ;
n401417792 (45.52411,-73.00715) ;
n401417793 (45.52397,-73.00696) ;
n401417794 (45.52397,-73.00683) ;
n401417795 (45.52402,-73.00677) ;
n401417796 (45.52409,-73.00683) ;
n401417797 (45.52435,-73.00715) ;
n401417798 (45.52438,-73.00731) ;
n401417799 (45.52432,-73.00739) ;
n401417800 (45.52426,-73.00737) ;
n401417803 (45.52304,-73.00657) ;
n401417805 (45.52171,-73.00481) ;
n401417851 (45.52206,-73.00668) ;
n401417852 (45.52255,-73.00593) ;
n401417853 (45.52293,-73.00535) ;
n401417886 (45.52296,-73.00522) ;
n401417888 (45.52292,-73.00512) ;
n401417889 (45.52151,-73.00319) ;
n401417901 (45.52034,-73.00493) ;
n401417902 (45.52208,-73.00232) ;
n415514926 (45.53306,-72.99857) ;
n415514927 (45.53248,-72.99947) ;
n430551737 (45.51978,-72.99912) ;
n430551738 (45.52005,-72.9996) ;
n430551739 (45.52158,-73.00162) ;
n540523043 (45.5274,-73.00726) ;
n540523050 (45.52592,-73.00953) ;
n540523053 (45.52817,-73.00609) ;
n540523058 (45.52668,-73.00837) ;
n540523081 (45.52523,-73.01055) ;
n540523082 (45.52097,-73.01712) ;
n623679642 (45.527,-73.00487) ;
n623679645 (45.52568,-73.00271) ;
n623679648 (45.52637,-73.00214) ;
n623679650 (45.5271,-73.00319) ;
n623679652 (45.5262,-73.00194) ;
n623679654 (45.5261,-73.00384) ;
n623679657 (45.52608,-73.00372) ;
n623679659 (45.52612,-73.00359) ;
n623679661 (45.52621,-73.00347) ;
n623679664 (45.52669,-73.00121) ;
n623679665 (45.52717,-73.00052) ;
n623679666 (45.52665,-73.00013) ;
n623679667 (45.52686,-73.00012) ;
n623679668 (45.52673,-73.0001) ;
n623679669 (45.52604,-73.00029) ;
n623679670 (45.52625,-73.0006) ;
n623679919 (45.52866,-73.00308) ;
n623679922 (45.52869,-73.00295) ;
n623679924 (45.52864,-73.00257) ;
n623679927 (45.52833,-73.0021) ;
n623679930 (45.52869,-73.00271) ;
n623679934 (45.52735,-73.00346) ;
n623679936 (45.52798,-73.00295) ;
n623679939 (45.52844,-73.00341) ;
n623679941 (45.5285,-73.00336) ;
n623679952 (45.5281,-73.00319) ;
n623679955 (45.52831,-73.00339) ;
n623679958 (45.52765,-73.00388) ;
n932471783 (45.5262,-73.00052) ;
n932471905 (45.52448,-73.00962) ;
n932472065 (45.52604,-73.00218) ;
n932472264 (45.52126,-73.01671) ;
n932472429 (45.52527,-73.01075) ;
n932472470 (45.52851,-73.01081) ;
n932472786 (45.52523,-73.00335) ;
n932472834 (45.52643,-73.00158) ;
n932472935 (45.52648,-73.0009) ;
n2116894472 (45.52056,-73.0046) ;
n2116894475 (45.52103,-73.00391) ;
---
Rue_Sainte-Anne :  n401416432 n401417671 n401417803 n401416433 n401417712 n932472786 n623679645 ;
Rue_Sainte-Anne :  n623679645 n932472786 n401417712 n401416433 n401417803 n401417671 n401416432 ;
Rue_Saint-Fabien :  n401417669 n932472429 n540523081 n932471905 n401417790 n401417671 ;
Rue_Saint-Fabien :  n401417671 n401417790 n932471905 n540523081 n932472429 n401417669 ;
Rue_Saint-Laurent :  n401417672 n401417766 n401417688 n401417674 n401417669 ;
Rue_Saint-Laurent :  n401417669 n401417674 n401417688 n401417766 n401417672 ;
Rue_Sainte-Marie :  n540523050 n401417695 n401417694 n401417693 n401417692 n401417691 n401417690 n401417689 n401417688 ;
Rue_MOnseigneur_Decelles :  n540523053 n401417759 n623679661 n623679645 ;
Rue_MOnseigneur_Decelles :  n623679645 n623679661 n401417759 n540523053 ;
Rue_Saint_Etienne :  n401417712 n540523043 ;
Rue_Saint_Etienne :  n540523043 n401417712 ;
Rue_Monseigneur_Lucier :  n623679952 n623679958 n401417759 n623679642 n401417762 n623679654 n623679657 n623679659 n623679661 ;
Rue_Monseigneur_Lucier :  n623679661 n623679659 n623679657 n623679654 n401417762 n623679642 n401417759 n623679958 n623679952 ;
Rue_Sainte-Marie :  n401417766 n401417767 n401417768 ;
Rue_Sainte-Marie :  n401417768 n401417767 n401417766 ;
Place_Beauregard :  n401417790 n401417791 n401417792 n401417793 n401417794 n401417795 n401417796 n401417797 n401417798 n401417799 n401417800 n401417792 ;
Place_Beauregard :  n401417792 n401417800 n401417799 n401417798 n401417797 n401417796 n401417795 n401417794 n401417793 n401417792 n401417791 n401417790 ;
Rue_Cordeau :  n401417803 n401417852 n401417805 ;
Rue_Cordeau :  n401417805 n401417852 n401417803 ;
Rue_Pion :  n401417851 n401417852 n401417853 ;
Rue_Pion :  n401417853 n401417852 n401417851 ;
Rue_Blanchard :  n401417853 n401417886 n401417888 n401417889 ;
Rue_Blanchard :  n401417889 n401417888 n401417886 n401417853 ;
Rue_Choiniere :  n401417901 n2116894472 n2116894475 n401417889 n401417902 ;
Rue_Choiniere :  n401417902 n401417889 n2116894475 n2116894472 n401417901 ;
Rue_Saint-Joseph :  n430551737 n430551738 n430551739 n401417902 n401416433 n540523058 ;
Rue_Saint-Joseph :  n540523058 n401416433 n401417902 n430551739 n430551738 n430551737 ;
Rue_Saint-Joseph :  n540523058 n401417672 n932472470 n401416336 ;
Rue_Saint-Joseph :  n401416336 n932472470 n401417672 n540523058 ;
Rue_Beaudry :  n623679665 n623679927 n623679924 n623679930 n623679922 n623679919 n623679941 n623679939 ;
Rue_Beaudry :  n623679939 n623679941 n623679919 n623679922 n623679930 n623679924 n623679927 n623679665 ;
Rue_Fontaine :  n623679664 n623679936 n623679952 ;
Rue_Fontaine :  n623679952 n623679936 n623679664 ;
Rue_Chartier :  n623679652 n623679648 n623679650 n623679934 n623679958 ;
Rue_Chartier :  n623679958 n623679934 n623679650 n623679648 n623679652 ;
Rue_Sainte-Anne :  n623679645 n932472065 n623679652 ;
Rue_Sainte-Anne :  n623679652 n932472065 n623679645 ;
Rue_Fontaine :  n623679670 n932472935 n623679664 ;
Rue_Fontaine :  n623679664 n932472935 n623679670 ;
Rue_Sainte-Anne :  n623679652 n932472834 n623679664 ;
Rue_Sainte-Anne :  n623679664 n932472834 n623679652 ;
Rue_Fontaine :  n623679669 n932471783 n623679670 ;
Rue_Fontaine :  n623679670 n932471783 n623679669 ;
Rue_Beaudry :  n623679670 n623679666 n623679668 n623679667 n623679665 ;
Rue_Beaudry :  n623679665 n623679667 n623679668 n623679666 n623679670 ;
? :  n623679664 n623679665 ;
? :  n623679665 n623679664 ;
Rue_Principale :  n415514926 n415514927 n540523053 n540523043 n540523058 n540523050 n540523081 n932472264 n540523082 ;
Rue_Principale :  n540523082 n932472264 n540523081 n540523050 n540523058 n540523043 n540523053 n415514927 n415514926 ;
Rue_Jodoin :  n401417851 n2116894472 ;
Rue_Jodoin :  n2116894472 n401417851 ;
Rue_Cordeau :  n401417805 n2116894475 ;
Rue_Cordeau :  n2116894475 n401417805 ;
? :  n623679939 n623679955 n623679952 ;
? :  n623679952 n623679955 n623679939 ;
